<?xml version="1.0" encoding="UTF-8" standalone="no"?>
<!-- Created with Inkscape (http://www.inkscape.org/) -->

<svg
   xmlns:dc="http://purl.org/dc/elements/1.1/"
   xmlns:cc="http://creativecommons.org/ns#"
   xmlns:rdf="http://www.w3.org/1999/02/22-rdf-syntax-ns#"
   xmlns:svg="http://www.w3.org/2000/svg"
   xmlns="http://www.w3.org/2000/svg"
   xmlns:sodipodi="http://sodipodi.sourceforge.net/DTD/sodipodi-0.dtd"
   xmlns:inkscape="http://www.inkscape.org/namespaces/inkscape"
   id="svg4136"
   version="1.1"
   inkscape:version="0.91 r13725"
   width="512"
   height="512"
   viewBox="0 0 512 512"
   sodipodi:docname="creature_face.svg">
  <metadata
     id="metadata4142">
    <rdf:RDF>
      <cc:Work
         rdf:about="">
        <dc:format>image/svg+xml</dc:format>
        <dc:type
           rdf:resource="http://purl.org/dc/dcmitype/StillImage" />
        <dc:title></dc:title>
      </cc:Work>
    </rdf:RDF>
  </metadata>
  <defs
     id="defs4140" />
  <sodipodi:namedview
     pagecolor="#ffffff"
     bordercolor="#666666"
     borderopacity="1"
     objecttolerance="10"
     gridtolerance="10"
     guidetolerance="10"
     inkscape:pageopacity="0"
     inkscape:pageshadow="2"
     inkscape:window-width="1920"
     inkscape:window-height="1017"
     id="namedview4138"
     showgrid="false"
     inkscape:zoom="0.54334589"
     inkscape:cx="506.11093"
     inkscape:cy="19.878854"
     inkscape:window-x="-8"
     inkscape:window-y="-8"
     inkscape:window-maximized="1"
     inkscape:current-layer="layer2" />
  <g
     inkscape:groupmode="layer"
     id="layer2"
     inkscape:label="Layer 2">
    <rect
       style="opacity:1;fill:#000000;stroke:#ffffff;stroke-width:1.38390934;stroke-linecap:round;stroke-linejoin:round;stroke-miterlimit:4;stroke-dasharray:2.76781859, 1.3839093, 0.69195465, 1.3839093;stroke-dashoffset:0;stroke-opacity:1"
       id="rect4167"
       width="526.98425"
       height="517.78204"
       x="-11.350758"
       y="-1.7931339" />
  </g>
  <g
     id="g4169"
     transform="translate(607.34793,-154.59765)" />
  <g
     inkscape:groupmode="layer"
     id="layer1"
     inkscape:label="Layer 1">
    <path
       sodipodi:nodetypes="ccccccccccccccccc"
       inkscape:connector-curvature="0"
       id="path4148"
       d="m 329.48977,223.18314 -9.10976,-1.95209 34.2174,-42.48588 0.34847,-14.65025 27.25032,-23.55027 10.29951,-1.45927 28.73685,-18.87081 -0.23,-11.73285 -14.9537,0.23005 15.6439,-5.98145 6.2115,0.69016 7.1317,14.03342 -34.0483,32.4379 -11.5028,36.57891 -28.98706,21.16515 -18.40448,2.53062 z"
       style="fill:#ffffff;fill-rule:evenodd;stroke:#ffffff;stroke-width:1px;stroke-linecap:butt;stroke-linejoin:miter;stroke-opacity:1" />
    <path
       sodipodi:nodetypes="ccccccccccccccccc"
       inkscape:connector-curvature="0"
       id="path4148-8"
       d="m 183.34898,217.92179 9.10975,-1.95209 -34.2174,-42.48588 -0.34847,-14.65025 -27.25032,-23.55027 -10.29951,-1.45927 -28.736876,-18.87081 0.23006,-11.73286 14.953626,0.23006 -15.643796,-5.981458 -6.21151,0.69017 -7.13174,14.033418 34.048276,32.4379 11.50281,36.57891 28.98706,21.16515 18.40448,2.53062 z"
       style="fill:#ffffff;fill-rule:evenodd;stroke:#ffffff;stroke-width:1px;stroke-linecap:butt;stroke-linejoin:miter;stroke-opacity:1" />
    <path
       inkscape:connector-curvature="0"
       id="path4165"
       d="m 71.453204,184.70077 -32.66796,43.71064 61.655016,81.43984 4.14101,-6.44157 2.30056,-21.16515 17.02415,13.80336 1.38033,49.23199 16.56404,23.0056 29.90728,-42.33031 14.26348,15.1837 -0.92023,30.3674 30.82751,28.52695 42.33031,-46.47132 37.26908,46.93143 31.28762,-28.06684 0.46011,-31.28762 13.80337,-16.56403 31.28762,43.25053 15.18369,-20.70504 c 0,0 -0.46011,-48.31177 5.06124,-52.45278 5.52133,-4.14101 12.88313,-10.12246 12.88313,-10.12246 l 6.4416,25.30616 62.1151,-80.97972 -33.5882,-44.63088 13.3433,34.96852 -13.8034,18.40448 -2.7607,-16.56403 -14.2634,41.8702 -8.7422,5.06123 -5.5213,-27.60672 -17.94438,12.42302 -8.28202,38.64942 -18.40448,20.70504 -10.58258,-52.91289 -17.02415,10.58258 -22.08537,67.63647 -57.97413,-15.18369 -54.29322,12.42302 -27.60672,-63.95558 -15.64381,-10.12246 -10.58258,52.45277 -20.24493,-23.46571 -8.74213,-40.94998 -16.56404,-12.42302 -1.38033,32.20784 -12.883136,-6.90168 -14.26348,-41.41008 1.38034,19.3247 -16.10392,-24.38594 z"
       style="fill:#ffffff;fill-rule:evenodd;stroke:#ffffff;stroke-width:1px;stroke-linecap:butt;stroke-linejoin:miter;stroke-opacity:1" />
  </g>
</svg>
